{
    "extension-id": "arc-menu",
    "uuid": "arc-menu@linxgem33.com",
    "settings-schema": "org.gnome.shell.extensions.arc-menu",
    "gettext-domain": "arc-menu",
    "name": "Arc Menu",
    "description": "The new applications menu for Gnome 3.",
    "version": -1,
    "shell-version": [
      "3.28", 
      "3.30",    
      "3.32",    
      "3.34"
    ],
    "url": "https://gitlab.com/LinxGem33/Arc-Menu"
}
